<?xml version="1.0" encoding="UTF-8" standalone="no"?>
<svg
   xmlns:dc="http://purl.org/dc/elements/1.1/"
   xmlns:cc="http://creativecommons.org/ns#"
   xmlns:rdf="http://www.w3.org/1999/02/22-rdf-syntax-ns#"
   xmlns:svg="http://www.w3.org/2000/svg"
   xmlns="http://www.w3.org/2000/svg"
   xmlns:sodipodi="http://sodipodi.sourceforge.net/DTD/sodipodi-0.dtd"
   xmlns:inkscape="http://www.inkscape.org/namespaces/inkscape"
   id="svg4306"
   width="24"
   height="24"
   version="1.1"
   style="enable-background:new"
   sodipodi:docname="maximize.svg"
   inkscape:version="0.92.1 r15371">
  <metadata
     id="metadata24">
    <rdf:RDF>
      <cc:Work
         rdf:about="">
        <dc:format>image/svg+xml</dc:format>
        <dc:type
           rdf:resource="http://purl.org/dc/dcmitype/StillImage" />
        <dc:title />
      </cc:Work>
    </rdf:RDF>
  </metadata>
  <defs
     id="defs22" />
  <sodipodi:namedview
     pagecolor="#ffffff"
     bordercolor="#666666"
     borderopacity="1"
     objecttolerance="10"
     gridtolerance="10"
     guidetolerance="10"
     inkscape:pageopacity="0"
     inkscape:pageshadow="2"
     inkscape:window-width="1920"
     inkscape:window-height="1016"
     id="namedview20"
     showgrid="true"
     inkscape:zoom="10.69"
     inkscape:cx="42.386343"
     inkscape:cy="6.4658462"
     inkscape:window-x="0"
     inkscape:window-y="0"
     inkscape:window-maximized="1"
     inkscape:current-layer="svg4306"
     inkscape:pagecheckerboard="true"
     showguides="true"
     inkscape:guide-bbox="true">
    <inkscape:grid
       type="xygrid"
       id="grid4497" />
    <sodipodi:guide
       position="48,13"
       orientation="1,0"
       id="guide3697"
       inkscape:locked="false" />
    <sodipodi:guide
       position="72,8"
       orientation="1,0"
       id="guide3699"
       inkscape:locked="false" />
    <sodipodi:guide
       position="96,2"
       orientation="1,0"
       id="guide3701"
       inkscape:locked="false" />
  </sodipodi:namedview>
  <g
     id="active-center">
    <rect
       style="fill:#000000;fill-opacity:0;stroke:none;stroke-opacity:1"
       id="rect4488"
       width="24"
       height="24"
       x="0"
       y="0" />
    <rect
       style="opacity:1;fill:#000000;fill-opacity:1;stroke:#ffffff;stroke-width:0;stroke-miterlimit:4;stroke-dasharray:none;stroke-opacity:1"
       id="rect827"
       width="8"
       height="0.99999952"
       x="8"
       y="-10"
       transform="rotate(90)" />
    <rect
       style="opacity:1;fill:#000000;fill-opacity:1;stroke:#ffffff;stroke-width:0;stroke-miterlimit:4;stroke-dasharray:none;stroke-opacity:1"
       id="rect827-3"
       width="8"
       height="0.99999952"
       x="8"
       y="-14.999999"
       transform="rotate(90)" />
  </g>
  <g
     id="hover-center"
     transform="translate(24)">
    <rect
       style="fill:#000000;fill-opacity:0;stroke:none;stroke-opacity:1"
       id="rect4488-3"
       width="24"
       height="24"
       x="0"
       y="0" />
    <rect
       style="opacity:1;fill:#060000;fill-opacity:1;stroke:#ffffff;stroke-width:0;stroke-miterlimit:4;stroke-dasharray:none;stroke-opacity:1"
       id="rect827-6"
       width="8"
       height="1"
       x="8"
       y="-9"
       transform="rotate(90)" />
    <rect
       style="opacity:1;fill:#000000;fill-opacity:1;stroke:#ffffff;stroke-width:0;stroke-miterlimit:4;stroke-dasharray:none;stroke-opacity:1"
       id="rect827-3-7"
       width="8"
       height="1"
       x="8"
       y="-16"
       transform="rotate(90)" />
  </g>
  <g
     id="pressed-center"
     transform="translate(48)">
    <rect
       style="fill:#000000;fill-opacity:0;stroke:none;stroke-opacity:1"
       id="rect4488-5"
       width="24"
       height="24"
       x="0"
       y="0" />
    <rect
       style="opacity:0.7;fill:#000000;fill-opacity:1;stroke:#ffffff;stroke-width:0;stroke-miterlimit:4;stroke-dasharray:none;stroke-opacity:1"
       id="rect827-35"
       width="8"
       height="1"
       x="8"
       y="-9"
       transform="rotate(90)" />
    <rect
       style="opacity:0.7;fill:#000000;fill-opacity:1;stroke:#ffffff;stroke-width:0;stroke-miterlimit:4;stroke-dasharray:none;stroke-opacity:1"
       id="rect827-3-6"
       width="8"
       height="1"
       x="8"
       y="-16"
       transform="rotate(90)" />
  </g>
  <g
     id="inactive-center"
     transform="translate(72)"
     inkscape:label="#inactive-center">
    <rect
       style="fill:#000000;fill-opacity:0;stroke:none;stroke-opacity:1"
       id="rect4488-2"
       width="24"
       height="24"
       x="0"
       y="0" />
    <rect
       style="opacity:0.5;fill:#000000;fill-opacity:1;stroke:#ffffff;stroke-width:0;stroke-miterlimit:4;stroke-dasharray:none;stroke-opacity:1"
       id="rect827-9"
       width="8"
       height="0.99999952"
       x="8"
       y="-10"
       transform="rotate(90)" />
    <rect
       style="opacity:0.5;fill:#000000;fill-opacity:1;stroke:#ffffff;stroke-width:0;stroke-miterlimit:4;stroke-dasharray:none;stroke-opacity:1"
       id="rect827-3-1"
       width="8"
       height="0.99999952"
       x="8"
       y="-14.999999"
       transform="rotate(90)" />
  </g>
  <g
     id="deactivated-center"
     transform="translate(96)">
    <rect
       style="fill:#000000;fill-opacity:0;stroke:none;stroke-opacity:1"
       id="rect4488-7"
       width="24"
       height="24"
       x="0"
       y="0" />
    <rect
       style="opacity:0.5;fill:#000000;fill-opacity:1;stroke:#ffffff;stroke-width:0;stroke-miterlimit:4;stroke-dasharray:none;stroke-opacity:1"
       id="rect827-0"
       width="8"
       height="0.99999952"
       x="8"
       y="-10"
       transform="rotate(90)" />
    <rect
       style="opacity:0.5;fill:#000000;fill-opacity:1;stroke:#ffffff;stroke-width:0;stroke-miterlimit:4;stroke-dasharray:none;stroke-opacity:1"
       id="rect827-3-9"
       width="8"
       height="0.99999952"
       x="8"
       y="-14.999999"
       transform="rotate(90)" />
  </g>
</svg>
